<?xml version="1.0" encoding="UTF-8"?>

<svg version="1.2" baseProfile="tiny" width="279.4mm" height="101.6mm" viewBox="0 0 27940 10160" preserveAspectRatio="xMidYMid" fill-rule="evenodd" stroke-width="28.222" stroke-linejoin="round" xmlns="http://www.w3.org/2000/svg" xmlns:xlink="http://www.w3.org/1999/xlink" xml:space="preserve">
 <defs>
  <font id="EmbeddedFont_1" horiz-adv-x="2048">
   <font-face font-family="Bitstream Vera Serif embedded" units-per-em="2048" font-weight="normal" font-style="normal" ascent="1911" descent="489"/>
   <missing-glyph horiz-adv-x="2048" d="M 0,0 L 2047,0 2047,2047 0,2047 0,0 Z"/>
   <glyph unicode="z" horiz-adv-x="933" d="M 82,0 L 82,86 748,956 221,956 221,772 115,772 115,1063 985,1063 985,977 319,106 897,106 897,299 1004,299 1004,0 Z"/>
   <glyph unicode="x" horiz-adv-x="1097" d="M 596,649 L 819,956 676,956 676,1063 1085,1063 1085,956 944,956 659,563 991,106 1130,106 1130,0 639,0 639,106 774,106 543,424 311,106 449,106 449,0 45,0 45,106 186,106 479,510 156,956 25,956 25,1063 500,1063 500,956 373,956 Z"/>
   <glyph unicode="w" horiz-adv-x="1702" d="M 983,1063 L 1255,233 1495,956 1341,956 1341,1063 1726,1063 1726,956 1608,956 1292,0 1139,0 877,795 614,0 467,0 152,956 33,956 33,1063 514,1063 514,956 342,956 580,233 854,1063 Z"/>
   <glyph unicode="u" horiz-adv-x="1189" d="M 725,1063 L 1069,1063 1069,106 1243,106 1243,0 885,0 885,188 C 851,117 807,64 753,27 699,-11 636,-29 565,-29 447,-29 360,5 305,72 249,139 221,244 221,387 L 221,956 55,956 55,1063 406,1063 406,444 C 406,315 422,226 454,178 485,130 542,106 623,106 708,106 773,137 818,200 863,263 885,354 885,473 L 885,956 725,956 Z"/>
   <glyph unicode="t" horiz-adv-x="746" d="M 221,956 L 59,956 59,1063 221,1063 221,1393 406,1393 406,1063 752,1063 752,956 406,956 406,281 C 406,191 415,133 432,108 449,83 481,70 528,70 576,70 611,84 633,113 655,141 667,187 668,250 L 807,250 C 802,153 775,83 728,38 681,-7 609,-29 512,-29 406,-29 331,-6 287,42 243,89 221,168 221,281 Z"/>
   <glyph unicode="r" horiz-adv-x="910" d="M 979,1065 L 979,799 873,799 C 870,852 855,891 829,917 803,943 765,956 715,956 624,956 555,925 507,862 458,799 434,709 434,592 L 434,106 647,106 647,0 84,0 84,106 250,106 250,958 74,958 74,1063 434,1063 434,874 C 470,948 516,1003 573,1039 630,1074 699,1092 780,1092 810,1092 842,1090 875,1085 908,1080 942,1074 979,1065 Z"/>
   <glyph unicode="p" horiz-adv-x="1142" d="M 420,584 L 420,479 C 420,351 445,254 494,187 543,120 614,86 707,86 801,86 872,124 921,199 969,274 993,385 993,532 993,679 969,790 921,865 872,940 801,977 707,977 614,977 543,943 494,876 445,809 420,711 420,584 Z M 236,956 L 59,956 59,1063 420,1063 420,897 C 456,964 502,1013 558,1045 613,1076 682,1092 764,1092 895,1092 1001,1040 1084,937 1167,834 1208,699 1208,532 1208,365 1167,230 1084,127 1001,23 895,-29 764,-29 682,-29 613,-13 558,19 502,50 456,99 420,166 L 420,-319 594,-319 594,-426 59,-426 59,-319 236,-319 Z"/>
   <glyph unicode="o" horiz-adv-x="1027" d="M 616,70 C 715,70 789,109 840,187 890,265 915,380 915,532 915,684 890,799 840,877 789,954 715,993 616,993 517,993 443,954 393,877 342,799 317,684 317,532 317,380 342,265 393,187 444,109 518,70 616,70 Z M 616,-29 C 461,-29 337,22 243,125 149,227 102,363 102,532 102,701 149,837 243,939 336,1041 461,1092 616,1092 771,1092 896,1041 990,939 1083,837 1130,701 1130,532 1130,363 1083,227 990,125 896,22 771,-29 616,-29 Z"/>
   <glyph unicode="n" horiz-adv-x="1189" d="M 84,0 L 84,106 250,106 250,956 74,956 74,1063 434,1063 434,874 C 468,946 512,1000 567,1037 621,1074 684,1092 756,1092 873,1092 960,1058 1015,991 1070,924 1098,819 1098,676 L 1098,106 1262,106 1262,0 754,0 754,106 913,106 913,618 C 913,748 897,837 865,886 833,934 777,958 696,958 611,958 546,927 501,865 456,802 434,711 434,592 L 434,106 594,106 594,0 Z"/>
   <glyph unicode="m" horiz-adv-x="1795" d="M 1061,856 C 1096,934 1142,993 1197,1033 1252,1072 1316,1092 1389,1092 1500,1092 1583,1058 1638,989 1693,920 1720,815 1720,676 L 1720,106 1886,106 1886,0 1376,0 1376,106 1536,106 1536,655 C 1536,764 1520,841 1488,887 1456,933 1403,956 1329,956 1247,956 1185,925 1142,863 1099,801 1077,711 1077,592 L 1077,106 1237,106 1237,0 733,0 733,106 893,106 893,662 C 893,768 877,844 845,889 813,934 760,956 686,956 604,956 542,925 499,863 456,801 434,711 434,592 L 434,106 594,106 594,0 84,0 84,106 250,106 250,958 74,958 74,1063 434,1063 434,874 C 468,945 511,999 564,1036 617,1073 676,1092 743,1092 826,1092 895,1072 950,1031 1005,990 1042,931 1061,856 Z"/>
   <glyph unicode="l" horiz-adv-x="537" d="M 420,106 L 594,106 594,0 59,0 59,106 236,106 236,1450 59,1450 59,1556 420,1556 Z"/>
   <glyph unicode="i" horiz-adv-x="537" d="M 199,1393 C 199,1424 210,1450 233,1473 255,1496 282,1507 313,1507 344,1507 370,1496 393,1473 415,1450 426,1424 426,1393 426,1362 415,1335 393,1313 371,1291 344,1280 313,1280 282,1280 255,1291 233,1313 210,1335 199,1362 199,1393 Z M 434,106 L 608,106 608,0 74,0 74,106 250,106 250,956 74,956 74,1063 434,1063 Z"/>
   <glyph unicode="h" horiz-adv-x="1189" d="M 84,0 L 84,106 250,106 250,1450 74,1450 74,1556 434,1556 434,874 C 468,946 512,1000 567,1037 621,1074 684,1092 756,1092 873,1092 960,1058 1015,991 1070,924 1098,819 1098,676 L 1098,106 1262,106 1262,0 754,0 754,106 913,106 913,618 C 913,748 897,837 866,885 834,932 777,956 696,956 611,956 546,925 501,863 456,801 434,711 434,592 L 434,106 594,106 594,0 Z"/>
   <glyph unicode="g" horiz-adv-x="1143" d="M 1075,956 L 1075,23 C 1075,-130 1033,-248 949,-331 865,-414 745,-455 590,-455 520,-455 453,-449 389,-436 325,-423 264,-404 205,-379 L 205,-156 301,-156 C 313,-225 341,-276 386,-308 431,-340 495,-356 578,-356 686,-356 765,-326 816,-265 866,-204 891,-108 891,23 L 891,166 C 855,99 809,50 754,19 698,-13 629,-29 547,-29 416,-29 310,23 227,127 144,230 102,365 102,532 102,699 143,834 226,937 309,1040 416,1092 547,1092 629,1092 698,1076 754,1045 809,1013 855,964 891,897 L 891,1063 1251,1063 1251,956 Z M 891,584 C 891,711 867,809 818,876 769,943 697,977 604,977 509,977 438,940 390,865 341,790 317,679 317,532 317,385 341,274 390,199 438,124 509,86 604,86 697,86 769,120 818,187 867,254 891,351 891,479 Z"/>
   <glyph unicode="f" horiz-adv-x="793" d="M 881,1305 L 784,1305 C 783,1355 769,1393 742,1419 714,1445 674,1458 621,1458 552,1458 504,1439 476,1402 448,1364 434,1297 434,1200 L 434,1063 731,1063 731,956 434,956 434,106 670,106 670,0 74,0 74,106 250,106 250,956 74,956 74,1063 250,1063 250,1196 C 250,1315 281,1404 343,1465 404,1526 495,1556 614,1556 659,1556 703,1552 748,1544 793,1536 837,1524 881,1507 Z"/>
   <glyph unicode="e" horiz-adv-x="1003" d="M 1110,512 L 317,512 317,504 C 317,361 344,253 398,180 452,107 532,70 637,70 718,70 784,91 836,134 887,176 923,239 944,322 L 1092,322 C 1063,205 1009,118 930,59 851,0 747,-29 618,-29 463,-29 338,22 244,125 149,227 102,363 102,532 102,700 148,835 241,938 334,1041 455,1092 606,1092 767,1092 890,1043 976,944 1062,845 1107,701 1110,512 Z M 893,618 C 889,742 863,836 815,899 766,962 697,993 606,993 521,993 455,961 406,898 357,835 328,741 317,618 Z"/>
   <glyph unicode="d" horiz-adv-x="1143" d="M 1075,106 L 1251,106 1251,0 891,0 891,166 C 855,99 809,50 754,19 698,-13 629,-29 547,-29 416,-29 310,23 227,127 144,230 102,365 102,532 102,699 143,834 226,937 309,1040 416,1092 547,1092 629,1092 698,1076 754,1045 809,1013 855,964 891,897 L 891,1450 717,1450 717,1556 1075,1556 Z M 891,479 L 891,584 C 891,711 867,809 818,876 769,943 697,977 604,977 509,977 438,940 390,865 341,790 317,679 317,532 317,385 341,274 390,199 438,124 509,86 604,86 697,86 769,120 818,187 867,254 891,351 891,479 Z"/>
   <glyph unicode="c" horiz-adv-x="957" d="M 1053,319 C 1027,206 977,119 903,60 829,1 733,-29 616,-29 461,-29 337,22 243,125 149,227 102,363 102,532 102,702 149,838 243,940 337,1041 461,1092 616,1092 683,1092 750,1084 817,1069 884,1053 951,1029 1018,997 L 1018,725 911,725 C 897,818 867,886 820,929 773,972 705,993 618,993 519,993 444,955 393,878 342,801 317,685 317,532 317,379 342,263 393,186 443,109 518,70 618,70 697,70 761,91 808,132 855,173 888,236 905,319 Z"/>
   <glyph unicode="b" horiz-adv-x="1142" d="M 236,106 L 236,1450 59,1450 59,1556 420,1556 420,897 C 456,964 502,1013 558,1045 613,1076 682,1092 764,1092 895,1092 1001,1040 1084,937 1167,834 1208,699 1208,532 1208,365 1167,230 1084,127 1001,23 895,-29 764,-29 682,-29 613,-13 558,19 502,50 456,99 420,166 L 420,0 59,0 59,106 Z M 420,479 C 420,351 445,254 494,187 543,120 614,86 707,86 801,86 872,124 921,199 969,274 993,385 993,532 993,679 969,790 921,865 872,940 801,977 707,977 614,977 543,943 494,876 445,809 420,711 420,584 Z"/>
   <glyph unicode="a" horiz-adv-x="1050" d="M 815,334 L 815,559 578,559 C 487,559 419,539 374,500 329,461 307,400 307,319 307,245 330,186 375,143 420,100 482,78 559,78 636,78 698,102 745,149 792,196 815,258 815,334 Z M 999,664 L 999,106 1163,106 1163,0 815,0 815,115 C 774,66 727,29 674,6 621,-17 558,-29 487,-29 369,-29 275,2 206,65 137,128 102,212 102,319 102,429 142,514 221,575 300,636 412,666 557,666 L 815,666 815,739 C 815,820 791,882 742,927 693,971 624,993 535,993 462,993 403,976 360,943 317,910 290,860 279,795 L 184,795 184,1010 C 248,1037 310,1058 371,1072 431,1085 490,1092 547,1092 694,1092 807,1056 884,983 961,910 999,803 999,664 Z"/>
   <glyph unicode="Z" horiz-adv-x="1259" d="M 92,0 L 92,72 1022,1370 250,1370 250,1147 127,1147 127,1493 1307,1493 1307,1421 377,123 1221,123 1221,332 1343,332 1343,0 Z"/>
   <glyph unicode="U" horiz-adv-x="1539" d="M 287,1386 L 96,1386 96,1493 680,1493 680,1386 489,1386 489,614 C 489,423 520,290 583,215 645,140 752,102 905,102 1058,102 1165,140 1228,215 1290,290 1321,423 1321,614 L 1321,1386 1130,1386 1130,1493 1634,1493 1634,1386 1444,1386 1444,594 C 1444,367 1400,206 1313,112 1226,18 1077,-29 868,-29 659,-29 510,18 421,113 332,208 287,368 287,594 Z"/>
   <glyph unicode="T" horiz-adv-x="1329" d="M 391,0 L 391,106 582,106 582,1374 143,1374 143,1141 20,1141 20,1493 1346,1493 1346,1141 1223,1141 1223,1374 784,1374 784,106 975,106 975,0 Z"/>
   <glyph unicode="S" horiz-adv-x="1073" d="M 190,72 L 190,412 305,411 C 308,298 341,214 404,160 466,105 561,78 688,78 807,78 897,102 960,149 1022,196 1053,264 1053,354 1053,426 1034,481 997,520 959,559 879,596 758,633 L 561,692 C 418,735 318,789 260,854 201,919 172,1007 172,1120 172,1247 217,1345 307,1415 397,1485 523,1520 686,1520 755,1520 831,1513 914,1498 997,1483 1085,1461 1178,1432 L 1178,1114 1065,1114 C 1054,1219 1019,1296 960,1343 901,1390 811,1413 690,1413 585,1413 505,1392 450,1349 395,1306 367,1243 367,1161 367,1090 388,1034 429,993 470,952 558,912 692,872 L 877,817 C 1012,776 1109,725 1167,662 1224,599 1253,514 1253,408 1253,263 1207,154 1114,81 1021,8 883,-29 700,-29 618,-29 535,-21 450,-4 365,13 278,38 190,72 Z"/>
   <glyph unicode="P" horiz-adv-x="1213" d="M 506,760 L 770,760 C 869,760 945,787 997,841 1049,894 1075,972 1075,1073 1075,1175 1049,1253 997,1306 945,1359 869,1386 770,1386 L 506,1386 Z M 113,0 L 113,106 303,106 303,1386 113,1386 113,1493 819,1493 C 968,1493 1087,1455 1174,1380 1261,1304 1305,1202 1305,1073 1305,945 1261,843 1174,767 1087,691 968,653 819,653 L 506,653 506,106 737,106 737,0 Z"/>
   <glyph unicode="M" horiz-adv-x="1889" d="M 113,0 L 113,106 303,106 303,1386 102,1386 102,1493 537,1493 1061,430 1585,1493 1993,1493 1993,1386 1794,1386 1794,106 1985,106 1985,0 1401,0 1401,106 1591,106 1591,1260 1079,219 938,219 426,1260 426,106 616,106 616,0 Z"/>
   <glyph unicode="L" horiz-adv-x="1213" d="M 113,0 L 113,106 303,106 303,1386 113,1386 113,1493 696,1493 696,1386 506,1386 506,123 1188,123 1188,373 1311,373 1311,0 Z"/>
   <glyph unicode="I" horiz-adv-x="584" d="M 506,106 L 696,106 696,0 113,0 113,106 303,106 303,1386 113,1386 113,1493 696,1493 696,1386 506,1386 Z"/>
   <glyph unicode="E" horiz-adv-x="1236" d="M 113,0 L 113,106 303,106 303,1386 113,1386 113,1493 1315,1493 1315,1161 1192,1161 1192,1370 506,1370 506,870 995,870 995,1057 1118,1057 1118,561 995,561 995,748 506,748 506,123 1208,123 1208,332 1331,332 1331,0 Z"/>
   <glyph unicode="D" horiz-adv-x="1423" d="M 506,106 L 692,106 C 886,106 1035,161 1139,272 1242,383 1294,541 1294,748 1294,955 1242,1113 1139,1222 1036,1331 887,1386 692,1386 L 506,1386 Z M 113,0 L 113,106 303,106 303,1386 113,1386 113,1493 707,1493 C 964,1493 1165,1427 1309,1296 1452,1165 1524,982 1524,748 1524,513 1452,330 1308,198 1164,66 964,0 707,0 Z"/>
   <glyph unicode="C" horiz-adv-x="1329" d="M 1444,395 C 1400,256 1326,150 1223,79 1119,7 988,-29 829,-29 732,-29 641,-12 558,21 475,54 401,103 336,168 261,243 206,328 170,423 133,518 115,625 115,745 115,977 182,1164 316,1307 450,1449 627,1520 846,1520 927,1520 1014,1509 1106,1488 1198,1467 1297,1434 1403,1391 L 1403,1047 1290,1047 C 1265,1172 1216,1265 1142,1324 1067,1383 963,1413 829,1413 670,1413 549,1357 467,1244 385,1131 344,964 344,745 344,526 385,361 467,248 549,135 670,78 829,78 940,78 1032,105 1104,158 1176,211 1228,290 1260,395 Z"/>
   <glyph unicode="A" horiz-adv-x="1492" d="M 410,541 L 958,541 684,1251 Z M -12,0 L -12,106 119,106 651,1493 819,1493 1352,106 1499,106 1499,0 956,0 956,106 1122,106 997,434 369,434 244,106 408,106 408,0 Z"/>
   <glyph unicode="9" horiz-adv-x="1026" d="M 958,669 C 913,619 862,582 804,557 746,532 681,520 608,520 460,520 343,565 258,654 172,743 129,865 129,1020 129,1171 176,1293 269,1384 362,1475 486,1520 641,1520 810,1520 939,1457 1030,1332 1120,1206 1165,1026 1165,793 1165,532 1111,329 1004,186 897,43 746,-29 551,-29 498,-29 443,-24 385,-14 327,-4 268,11 207,31 L 207,279 319,279 C 328,212 354,160 397,124 440,88 498,70 571,70 700,70 797,119 860,217 923,314 956,465 958,669 Z M 633,1421 C 538,1421 466,1387 416,1318 365,1249 340,1149 340,1020 340,891 365,791 416,722 466,653 538,618 633,618 728,618 800,652 851,719 901,786 926,882 926,1008 926,1141 901,1243 850,1314 799,1385 727,1421 633,1421 Z"/>
   <glyph unicode="3" horiz-adv-x="1003" d="M 199,1430 C 277,1459 352,1482 424,1497 495,1512 562,1520 625,1520 771,1520 885,1489 967,1426 1049,1363 1090,1275 1090,1163 1090,1073 1062,998 1005,938 948,877 868,836 764,815 887,798 982,753 1050,682 1117,610 1151,517 1151,403 1151,264 1104,157 1011,83 917,8 782,-29 606,-29 528,-29 452,-21 378,-4 303,13 229,38 156,72 L 156,362 268,362 C 275,266 307,193 365,144 423,95 505,70 610,70 712,70 793,100 852,159 911,218 940,298 940,401 940,518 910,607 849,668 788,728 699,758 582,758 L 487,758 487,860 537,860 C 654,860 741,884 800,933 858,981 887,1054 887,1151 887,1238 863,1305 815,1352 767,1398 698,1421 608,1421 518,1421 448,1400 399,1357 349,1314 320,1251 311,1167 L 199,1167 Z"/>
   <glyph unicode="2" horiz-adv-x="979" d="M 262,1137 L 150,1137 150,1403 C 221,1441 293,1470 366,1490 438,1510 509,1520 578,1520 733,1520 856,1482 946,1407 1036,1332 1081,1229 1081,1100 1081,954 979,779 775,576 759,561 747,549 739,541 L 362,164 985,164 985,348 1102,348 1102,0 139,0 139,109 592,561 C 692,661 763,753 806,837 849,920 870,1008 870,1100 870,1201 844,1279 792,1336 739,1393 667,1421 575,1421 480,1421 406,1397 354,1350 302,1303 271,1232 262,1137 Z"/>
   <glyph unicode="1" horiz-adv-x="770" d="M 291,0 L 291,106 551,106 551,1348 250,1153 250,1284 614,1520 752,1520 752,106 1012,106 1012,0 Z"/>
   <glyph unicode="0" horiz-adv-x="1049" d="M 651,70 C 753,70 829,126 880,238 931,350 956,519 956,745 956,972 931,1141 880,1253 829,1365 753,1421 651,1421 549,1421 473,1365 422,1253 371,1141 346,972 346,745 346,519 371,350 422,238 473,126 549,70 651,70 Z M 651,-29 C 489,-29 363,39 272,175 181,311 135,501 135,745 135,990 181,1180 272,1316 363,1452 489,1520 651,1520 814,1520 940,1452 1031,1316 1122,1180 1167,990 1167,745 1167,501 1122,311 1031,175 940,39 814,-29 651,-29 Z"/>
   <glyph unicode="-" horiz-adv-x="514" d="M 90,627 L 602,627 602,471 90,471 Z"/>
   <glyph unicode=")" horiz-adv-x="490" d="M 145,-319 L 145,-221 C 248,-150 322,-51 367,78 412,206 434,386 434,618 434,851 412,1031 367,1160 322,1288 248,1387 145,1458 L 145,1556 C 308,1483 430,1368 513,1211 596,1053 637,855 637,618 637,381 596,184 513,27 430,-131 308,-246 145,-319 Z"/>
   <glyph unicode="(" horiz-adv-x="513" d="M 653,-319 C 491,-246 369,-131 286,27 203,184 162,381 162,618 162,855 203,1053 286,1211 369,1368 491,1483 653,1556 L 653,1458 C 550,1387 477,1288 432,1160 387,1031 365,851 365,618 365,386 387,206 432,78 477,-51 550,-150 653,-221 Z"/>
   <glyph unicode=" " horiz-adv-x="652"/>
  </font>
 </defs>
 <defs>
  <font id="EmbeddedFont_2" horiz-adv-x="2048">
   <font-face font-family="Bitstream Vera Serif embedded" units-per-em="2048" font-weight="bold" font-style="normal" ascent="1934" descent="489"/>
   <missing-glyph horiz-adv-x="2048" d="M 0,0 L 2047,0 2047,2047 0,2047 0,0 Z"/>
   <glyph unicode="x" horiz-adv-x="1213" d="M 719,678 L 907,942 776,942 776,1063 1190,1063 1190,942 1049,942 778,563 1094,121 1235,121 1235,0 559,0 559,121 696,121 496,401 295,121 438,121 438,0 0,0 0,121 152,121 434,518 129,942 10,942 10,1063 659,1063 659,942 530,942 Z"/>
   <glyph unicode="b" horiz-adv-x="1282" d="M 199,121 L 199,1436 47,1436 47,1556 553,1556 553,928 C 583,983 623,1025 674,1052 725,1079 787,1092 862,1092 1013,1092 1133,1042 1220,943 1307,843 1350,706 1350,532 1350,358 1307,221 1220,121 1133,21 1013,-29 862,-29 787,-29 725,-16 674,12 623,39 583,80 553,135 L 553,0 47,0 47,121 Z M 553,479 C 553,355 569,265 601,210 632,155 683,127 754,127 827,127 878,156 908,215 937,274 952,379 952,532 952,685 937,790 908,849 878,907 827,936 754,936 683,936 632,908 601,853 569,798 553,708 553,584 Z"/>
   <glyph unicode="G" horiz-adv-x="1516" d="M 1409,1024 C 1379,1156 1329,1252 1259,1311 1189,1370 1090,1399 963,1399 808,1399 695,1347 623,1242 550,1137 514,971 514,745 514,521 549,356 618,251 687,145 795,92 942,92 998,92 1050,98 1098,111 1146,124 1190,143 1229,168 L 1229,578 1049,578 1049,698 1587,698 1587,125 C 1475,73 1363,34 1252,9 1140,-16 1026,-29 909,-29 653,-29 452,40 306,178 159,316 86,505 86,745 86,986 159,1175 306,1313 452,1451 653,1520 909,1520 1016,1520 1121,1509 1224,1488 1327,1467 1431,1434 1536,1391 L 1536,1024 Z"/>
   <glyph unicode="4" horiz-adv-x="1259" d="M 1307,0 L 485,0 485,121 707,121 707,393 84,393 84,508 709,1520 1085,1520 1085,522 1341,522 1341,393 1085,393 1085,121 1307,121 Z M 707,522 L 707,1247 262,522 Z"/>
   <glyph unicode="2" horiz-adv-x="1119" d="M 270,1124 L 150,1124 150,1446 C 231,1471 312,1489 392,1502 471,1514 552,1520 633,1520 823,1520 971,1481 1078,1404 1184,1326 1237,1218 1237,1079 1237,980 1208,892 1149,814 1090,735 978,642 813,535 L 397,262 1104,262 1104,438 1241,438 1241,0 137,0 137,244 358,397 C 547,527 672,638 735,729 798,820 829,927 829,1049 829,1164 805,1252 758,1313 710,1373 640,1403 549,1403 470,1403 407,1379 360,1332 313,1284 283,1215 270,1124 Z"/>
   <glyph unicode="1" horiz-adv-x="980" d="M 281,0 L 281,121 561,121 561,1329 250,1145 250,1294 625,1520 940,1520 940,121 1221,121 1221,0 Z"/>
   <glyph unicode="0" horiz-adv-x="1236" d="M 713,88 C 793,88 848,124 878,197 907,270 922,452 922,745 922,1036 907,1218 878,1292 848,1366 793,1403 713,1403 633,1403 578,1367 549,1294 519,1221 504,1038 504,745 504,452 519,270 549,197 578,124 633,88 713,88 Z M 713,-29 C 514,-29 361,38 255,171 149,304 96,495 96,745 96,995 149,1187 255,1320 361,1453 514,1520 713,1520 912,1520 1064,1453 1170,1320 1276,1187 1329,995 1329,745 1329,495 1276,304 1170,171 1064,38 912,-29 713,-29 Z"/>
  </font>
 </defs>
 <g visibility="visible" id="MasterSlide_1_Default">
  <desc>Master slide
  </desc>
  <rect fill="none" stroke="none" x="0" y="0" width="27940" height="10160"/>
 </g>
 <g visibility="visible" id="Slide_1_page1">
  <g>
   <path fill="none" stroke="rgb(0,0,0)" id="Drawing_1_0" stroke-width="102" stroke-linejoin="bevel" d="M 17790,2940 L 13960,5701"/>
   <path fill="rgb(0,0,0)" stroke="none" id="Drawing_1_1" d="M 18161,2672 L 17701,2816 17879,3063 18161,2672 Z"/>
   <path fill="rgb(0,0,0)" stroke="none" id="Drawing_1_2" d="M 13589,5969 L 14049,5825 13871,5578 13589,5969 Z"/>
  </g>
  <g>
   <path fill="rgb(102,255,255)" stroke="none" d="M 18415,2667 L 16129,2667 16129,1143 20701,1143 20701,2667 18415,2667 Z"/>
   <path fill="none" stroke="rgb(0,0,0)" id="Drawing_2_0" stroke-linejoin="round" d="M 18415,2667 L 16129,2667 16129,1143 20701,1143 20701,2667 18415,2667 Z"/>
   <rect fill="none" stroke="none" x="16129" y="1143" width="4573" height="1525"/>
  </g>
  <g id="Drawing_3">
   <rect fill="none" stroke="none" x="16334" y="1202" width="4207" height="1393"/>
   <g fill="rgb(0,0,0)" stroke="none" font-family="Bitstream Vera Serif embedded" font-size="706" font-style="normal" font-weight="400">
    <text x="16334" y="1858">
     <tspan x="16334 16804 17231 17456 17968 18641 19094 19319 19742">To Emulab</tspan></text>
   </g>
   <g fill="rgb(0,0,0)" stroke="none" font-family="Bitstream Vera Serif embedded" font-size="423" font-style="normal" font-weight="400">
    <text x="16334" y="2417">
     <tspan x="16334 16499 16770 17024 17388 17659 17909 18108 18252 18501 18743 19014 19183 19327 19598 19869 20106 20373">(powder-expt-ddc1)</tspan></text>
   </g>
  </g>
  <g id="Drawing_4">
   <rect fill="none" stroke="none" x="17145" y="3556" width="2287" height="636"/>
   <g fill="rgb(0,0,0)" stroke="none" font-family="Bitstream Vera Serif embedded" font-size="423" font-style="normal" font-weight="700">
    <text x="17145" y="3954">
     <tspan x="17145 17441 17691 17987 18280 18576 18936">2x100Gb</tspan></text>
   </g>
  </g>
  <g>
   <path fill="rgb(102,255,255)" stroke="none" d="M 11860,2666 L 9955,2666 9955,1015 13765,1015 13765,2666 11860,2666 Z"/>
   <path fill="none" stroke="rgb(0,0,0)" id="Drawing_5_0" stroke-linejoin="round" d="M 11860,2666 L 9955,2666 9955,1015 13765,1015 13765,2666 11860,2666 Z"/>
   <rect fill="none" stroke="none" x="9955" y="1016" width="3811" height="1652"/>
  </g>
  <g id="Drawing_6">
   <rect fill="none" stroke="none" x="9758" y="1146" width="3889" height="1395"/>
   <g fill="rgb(0,0,0)" stroke="none" font-family="Bitstream Vera Serif embedded" font-size="706" font-style="normal" font-weight="400">
    <text x="9758" y="1802">
     <tspan x="9758 9982">  </tspan></text>
    <text fill="rgb(0,0,0)" stroke="none" x="10207" y="1802">
     <tspan x="10207 10749 10973 11397 11854 12307 12772 13196">CloudLab</tspan></text>
   </g>
   <g fill="rgb(0,0,0)" stroke="none" font-family="Bitstream Vera Serif embedded" font-size="423" font-style="normal" font-weight="400">
    <text x="10275" y="2361"> </text>
    <text fill="rgb(0,0,0)" stroke="none" x="10410" y="2361">
     <tspan x="10410 10575 10812 10948 11092 11341 11578 11849 12019 12256 12510 12713 12963">(cl-exptcore)</tspan></text>
   </g>
  </g>
  <g>
   <path fill="none" stroke="rgb(0,0,0)" id="Drawing_7_0" stroke-width="102" stroke-linejoin="bevel" d="M 11987,5512 L 11987,3125"/>
   <path fill="rgb(0,0,0)" stroke="none" id="Drawing_7_1" d="M 11987,5969 L 12140,5512 11835,5512 11987,5969 Z"/>
   <path fill="rgb(0,0,0)" stroke="none" id="Drawing_7_2" d="M 11987,2667 L 11835,3125 12140,3125 11987,2667 Z"/>
  </g>
  <g id="Drawing_8">
   <rect fill="none" stroke="none" x="9722" y="3683" width="2090" height="509"/>
   <g fill="rgb(0,0,0)" stroke="none" font-family="Bitstream Vera Serif embedded" font-size="423" font-style="normal" font-weight="700">
    <text x="9722" y="4081">
     <tspan x="9722 10018 10268 10564 10857 11153 11513">2x400Gb</tspan></text>
   </g>
  </g>
  <g>
   <path fill="none" stroke="rgb(0,0,0)" id="Drawing_9_0" stroke-width="102" stroke-linejoin="bevel" d="M 9769,5763 L 6458,2238"/>
   <path fill="rgb(0,0,0)" stroke="none" id="Drawing_9_1" d="M 10082,6096 L 9880,5658 9658,5867 10082,6096 Z"/>
   <path fill="rgb(0,0,0)" stroke="none" id="Drawing_9_2" d="M 6145,1905 L 6347,2343 6569,2134 6145,1905 Z"/>
  </g>
  <g id="Drawing_10">
   <rect fill="none" stroke="none" x="5745" y="3175" width="1544" height="509"/>
   <g fill="rgb(0,0,0)" stroke="none" font-family="Bitstream Vera Serif embedded" font-size="423" font-style="normal" font-weight="700">
    <text x="5745" y="3573">
     <tspan x="5745 6041 6333 6630 6990">100Gb</tspan></text>
   </g>
  </g>
  <g>
   <path fill="rgb(102,255,255)" stroke="none" d="M 6018,1905 L 5129,1905 5129,1123 6907,1123 6907,1905 6018,1905 Z"/>
   <path fill="none" stroke="rgb(0,0,0)" id="Drawing_11_0" stroke-linejoin="round" d="M 6018,1905 L 5129,1905 5129,1123 6907,1123 6907,1905 6018,1905 Z"/>
   <rect fill="none" stroke="none" x="5129" y="1123" width="1779" height="783"/>
  </g>
  <g id="Drawing_12">
   <rect fill="none" stroke="none" x="5510" y="488" width="1150" height="1319"/>
   <g fill="rgb(0,0,0)" stroke="none" font-family="Bitstream Vera Serif embedded" font-size="423" font-style="normal" font-weight="400">
    <text x="5510" y="1703">
     <tspan x="5510 5815 6098 6365">AL2S</tspan></text>
   </g>
  </g>
  <g>
   <path fill="rgb(102,255,255)" stroke="none" d="M 4318,7726 L 2413,7726 2413,6075 6223,6075 6223,7726 4318,7726 Z"/>
   <path fill="none" stroke="rgb(0,0,0)" id="Drawing_13_0" stroke-linejoin="round" d="M 4318,7726 L 2413,7726 2413,6075 6223,6075 6223,7726 4318,7726 Z"/>
   <rect fill="none" stroke="none" x="2413" y="6076" width="3811" height="1652"/>
  </g>
  <g id="Drawing_14">
   <rect fill="none" stroke="none" x="2843" y="6226" width="3049" height="1395"/>
   <g fill="rgb(0,0,0)" stroke="none" font-family="Bitstream Vera Serif embedded" font-size="706" font-style="normal" font-weight="400">
    <text x="3216" y="6882">
     <tspan x="3216 3440">  </tspan></text>
    <text fill="rgb(0,0,0)" stroke="none" x="3665" y="6882">
     <tspan x="3665 4173 4651">APT</tspan></text>
   </g>
   <g fill="rgb(0,0,0)" stroke="none" font-family="Bitstream Vera Serif embedded" font-size="423" font-style="normal" font-weight="400">
    <text x="2843" y="7441">
     <tspan x="2843 2978">  </tspan></text>
    <text fill="rgb(0,0,0)" stroke="none" x="3114" y="7441">
     <tspan x="3114 3279 3436 3690 3893 4130 4380 4651 4917 5061 5328">(force10-2)</tspan></text>
   </g>
  </g>
  <g>
   <path fill="none" stroke="rgb(0,0,0)" id="Drawing_15_0" stroke-width="102" stroke-linejoin="bevel" d="M 9625,6858 L 6603,6858"/>
   <path fill="rgb(0,0,0)" stroke="none" id="Drawing_15_1" d="M 10082,6858 L 9625,6706 9625,7011 10082,6858 Z"/>
   <path fill="rgb(0,0,0)" stroke="none" id="Drawing_15_2" d="M 6145,6858 L 6603,7011 6603,6706 6145,6858 Z"/>
  </g>
  <g id="Drawing_16">
   <rect fill="none" stroke="none" x="6848" y="6096" width="1408" height="509"/>
   <g fill="rgb(0,0,0)" stroke="none" font-family="Bitstream Vera Serif embedded" font-size="423" font-style="normal" font-weight="700">
    <text x="6848" y="6494">
     <tspan x="6848 7144 7436 7796">40Gb</tspan></text>
   </g>
  </g>
  <g>
   <path fill="none" stroke="rgb(0,0,0)" id="Drawing_17_0" stroke-width="102" stroke-linejoin="round" d="M 11808,7620 L 10082,7620 10082,5969 13534,5969 13534,7620 11808,7620 Z"/>
  </g>
  <g id="Drawing_18">
   <rect fill="none" stroke="none" x="10336" y="6223" width="3049" height="1314"/>
   <g fill="rgb(0,0,0)" stroke="none" font-family="Bitstream Vera Serif embedded" font-size="494" font-style="normal" font-weight="400">
    <text x="10336" y="6680">
     <tspan x="10336 10675 11051 11246 11644 12148 12491 12660 13037">SCIDMZ-CL</tspan></text>
   </g>
   <g fill="rgb(0,0,0)" stroke="none" font-family="Bitstream Vera Serif embedded" font-size="423" font-style="normal" font-weight="400">
    <text x="10539" y="7193">
     <tspan x="10539 10704 11043 11293 11428 11563 11699 11923 12190 12461 12728 12999">(Dell z9332)</tspan></text>
   </g>
  </g>
  <g>
   <path fill="rgb(0,184,255)" fill-opacity="0.102" stroke="rgb(255,255,255)" stroke-opacity="0.102" d="M 12319,8763 L 8890,8763 8890,5461 15748,5461 15748,8763 12319,8763 Z"/>
   <path fill="none" stroke="rgb(0,0,0)" id="Drawing_19_0" stroke-linejoin="round" d="M 12319,8763 L 8890,8763 8890,5461 15748,5461 15748,8763 12319,8763 Z"/>
   <rect fill="none" stroke="none" x="8890" y="5461" width="6859" height="3303"/>
  </g>
  <g id="Drawing_20">
   <rect fill="none" stroke="none" x="9017" y="7874" width="6446" height="636"/>
   <g fill="rgb(0,0,0)" stroke="none" font-family="Bitstream Vera Serif embedded" font-size="494" font-style="normal" font-weight="400">
    <text x="9017" y="8331">
     <tspan x="9017 9432 9631 9927 10245 10401 10740 10939 11096 11295 11570 11891 12048 12366 12683 12840 13195 13513 13830 14063 14355 14673 14969 15168">Utah Stitching Aggregate</tspan></text>
   </g>
  </g>
 </g>
</svg>